ply
format ascii 1.0
comment Created by Blender 2.79 (sub 0) - www.blender.org, source file: ''
element vertex 288
property float x
property float y
property float z
property float nx
property float ny
property float nz
property uchar red
property uchar green
property uchar blue
element face 156
property list uchar uint vertex_indices
end_header
0.141000 0.036000 0.012752 1.000000 -0.000000 0.000000 149 40 40
0.141000 0.036000 0.018752 1.000000 -0.000000 0.000000 149 40 40
0.141000 -0.036000 0.012752 1.000000 -0.000000 0.000000 149 40 40
0.141000 -0.036000 0.018752 1.000000 0.000000 0.000000 149 40 40
-0.141000 0.036000 0.012752 -0.000000 1.000000 0.000000 149 40 40
-0.141000 0.036000 0.018752 -0.000000 1.000000 0.000000 149 40 40
0.141000 0.036000 0.012752 -0.000000 1.000000 0.000000 149 40 40
0.141000 0.036000 0.018752 -0.000000 1.000000 0.000000 149 40 40
-0.141000 -0.036000 0.018752 -1.000000 0.000000 0.000000 149 40 40
-0.141000 0.036000 0.018752 -1.000000 0.000000 0.000000 149 40 40
-0.141000 -0.036000 0.012752 -1.000000 0.000000 0.000000 149 40 40
-0.141000 0.036000 0.012752 -1.000000 -0.000000 0.000000 149 40 40
0.141000 -0.036000 0.018752 0.000000 -1.000000 0.000000 149 40 40
-0.141000 -0.036000 0.018752 0.000000 -1.000000 0.000000 149 40 40
0.141000 -0.036000 0.012752 0.000000 -1.000000 0.000000 149 40 40
-0.141000 -0.036000 0.012752 0.000000 -1.000000 0.000000 149 40 40
-0.141000 0.036000 0.018752 -0.000000 0.000000 1.000000 149 40 40
-0.141000 -0.036000 0.018752 -0.000000 0.000000 1.000000 149 40 40
0.141000 0.036000 0.018752 -0.000000 0.000000 1.000000 149 40 40
0.141000 -0.036000 0.018752 -0.000000 0.000000 1.000000 149 40 40
-0.141000 -0.036000 0.012752 -0.000000 0.000000 1.000000 149 40 40
-0.150000 -0.045000 0.012752 -0.000000 0.000000 1.000000 149 40 40
0.141000 -0.036000 0.012752 -0.000000 0.000000 1.000000 149 40 40
0.150000 -0.045000 0.012752 -0.000000 0.000000 1.000000 149 40 40
0.141000 0.036000 0.012752 -0.000000 0.000000 1.000000 149 40 40
0.150000 0.045000 0.012752 0.000000 0.000000 1.000000 149 40 40
-0.141000 0.036000 0.012752 -0.000000 0.000000 1.000000 149 40 40
-0.150000 0.045000 0.012752 -0.000000 0.000000 1.000000 149 40 40
0.150000 0.045000 0.012752 1.000000 -0.000000 -0.000000 149 40 40
0.150000 -0.045000 0.012752 1.000000 -0.000000 -0.000000 149 40 40
0.150000 0.045000 0.009752 1.000000 -0.000000 -0.000000 149 40 40
0.150000 -0.045000 0.009752 1.000000 -0.000000 0.000000 149 40 40
-0.150000 0.045000 0.012752 -0.000000 1.000000 0.000000 149 40 40
0.150000 0.045000 0.012752 -0.000000 1.000000 0.000000 149 40 40
-0.150000 0.045000 0.009752 -0.000000 1.000000 0.000000 149 40 40
0.150000 0.045000 0.009752 -0.000000 1.000000 0.000000 149 40 40
-0.150000 -0.045000 0.012752 -1.000000 0.000000 0.000000 149 40 40
-0.150000 0.045000 0.012752 -1.000000 0.000000 0.000000 149 40 40
-0.150000 -0.045000 0.009752 -1.000000 0.000000 0.000000 149 40 40
-0.150000 0.045000 0.009752 -1.000000 -0.000000 0.000000 149 40 40
0.150000 -0.045000 0.012752 0.000000 -1.000000 0.000000 149 40 40
-0.150000 -0.045000 0.012752 0.000000 -1.000000 0.000000 149 40 40
0.150000 -0.045000 0.009752 0.000000 -1.000000 0.000000 149 40 40
-0.150000 -0.045000 0.009752 0.000000 -1.000000 0.000000 149 40 40
-0.150000 -0.045000 0.009752 0.000000 -0.000000 -1.000000 149 40 40
-0.150000 0.045000 0.009752 0.000000 -0.000000 -1.000000 149 40 40
0.150000 -0.045000 0.009752 0.000000 -0.000000 -1.000000 149 40 40
0.150000 0.045000 0.009752 0.000000 -0.000000 -1.000000 149 40 40
-0.155000 -0.035000 -0.000248 0.000000 1.000000 -0.000000 26 29 0
-0.155000 -0.035000 0.068752 0.000000 1.000000 -0.000000 26 29 0
-0.150000 -0.035000 -0.000248 0.000000 1.000000 -0.000000 26 29 0
-0.150000 -0.035000 0.068752 0.000000 1.000000 -0.000000 26 29 0
-0.139000 -0.045000 -0.000248 0.000000 0.000000 -1.000000 26 29 0
-0.139000 -0.051000 -0.000248 0.000000 0.000000 -1.000000 26 29 0
-0.150000 -0.045000 -0.000248 0.000000 0.000000 -1.000000 26 29 0
-0.155000 -0.051000 -0.000248 0.000000 0.000000 -1.000000 26 29 0
-0.150000 -0.035000 -0.000248 0.000000 -0.000000 -1.000000 26 29 0
-0.155000 -0.035000 -0.000248 0.000000 -0.000000 -1.000000 26 29 0
-0.150000 -0.035000 0.068752 0.000000 -0.000000 1.000000 26 29 0
-0.155000 -0.035000 0.068752 0.000000 -0.000000 1.000000 26 29 0
-0.150000 -0.045000 0.068752 0.000000 -0.000000 1.000000 26 29 0
-0.155000 -0.051000 0.068752 -0.000000 0.000000 1.000000 26 29 0
-0.139000 -0.045000 0.068752 0.000000 -0.000000 1.000000 26 29 0
-0.139000 -0.051000 0.068752 0.000000 -0.000000 1.000000 26 29 0
-0.155000 -0.035000 -0.000248 -1.000000 0.000000 -0.000000 26 29 0
-0.155000 -0.051000 -0.000248 -1.000000 0.000000 -0.000000 26 29 0
-0.155000 -0.035000 0.068752 -1.000000 0.000000 -0.000000 26 29 0
-0.155000 -0.051000 0.068752 -1.000000 0.000000 -0.000000 26 29 0
-0.139000 -0.045000 0.068752 1.000000 0.000000 -0.000000 26 29 0
-0.139000 -0.051000 0.068752 1.000000 0.000000 -0.000000 26 29 0
-0.139000 -0.045000 -0.000248 1.000000 0.000000 -0.000000 26 29 0
-0.139000 -0.051000 -0.000248 1.000000 -0.000000 0.000000 26 29 0
-0.155000 -0.051000 -0.000248 0.000000 -1.000000 0.000000 26 29 0
-0.139000 -0.051000 -0.000248 0.000000 -1.000000 0.000000 26 29 0
-0.155000 -0.051000 0.068752 0.000000 -1.000000 0.000000 26 29 0
-0.139000 -0.051000 0.068752 0.000000 -1.000000 0.000000 26 29 0
-0.150000 -0.045000 -0.000248 1.000000 0.000000 0.000000 26 29 0
-0.150000 -0.035000 -0.000248 1.000000 0.000000 0.000000 26 29 0
-0.150000 -0.045000 0.068752 1.000000 0.000000 0.000000 26 29 0
-0.150000 -0.035000 0.068752 1.000000 0.000000 0.000000 26 29 0
-0.139000 -0.045000 -0.000248 -0.000000 1.000000 -0.000000 26 29 0
-0.150000 -0.045000 -0.000248 -0.000000 1.000000 -0.000000 26 29 0
-0.139000 -0.045000 0.068752 -0.000000 1.000000 -0.000000 26 29 0
-0.150000 -0.045000 0.068752 -0.000000 1.000000 -0.000000 26 29 0
-0.155000 0.035000 0.068752 0.000000 -1.000000 0.000000 26 29 0
-0.155000 0.035000 -0.000248 0.000000 -1.000000 0.000000 26 29 0
-0.150000 0.035000 0.068752 0.000000 -1.000000 0.000000 26 29 0
-0.150000 0.035000 -0.000248 0.000000 -1.000000 0.000000 26 29 0
-0.139000 0.045000 0.068752 -0.000000 0.000000 1.000000 26 29 0
-0.139000 0.051000 0.068752 -0.000000 0.000000 1.000000 26 29 0
-0.150000 0.045000 0.068752 -0.000000 0.000000 1.000000 26 29 0
-0.155000 0.051000 0.068752 -0.000000 0.000000 1.000000 26 29 0
-0.150000 0.035000 0.068752 -0.000000 -0.000000 1.000000 26 29 0
-0.155000 0.035000 0.068752 -0.000000 0.000000 1.000000 26 29 0
-0.150000 0.035000 -0.000248 0.000000 -0.000000 -1.000000 26 29 0
-0.155000 0.035000 -0.000248 0.000000 -0.000000 -1.000000 26 29 0
-0.150000 0.045000 -0.000248 0.000000 -0.000000 -1.000000 26 29 0
-0.155000 0.051000 -0.000248 -0.000000 -0.000000 -1.000000 26 29 0
-0.139000 0.045000 -0.000248 -0.000000 -0.000000 -1.000000 26 29 0
-0.139000 0.051000 -0.000248 0.000000 -0.000000 -1.000000 26 29 0
-0.155000 0.035000 0.068752 -1.000000 0.000000 0.000000 26 29 0
-0.155000 0.051000 0.068752 -1.000000 0.000000 0.000000 26 29 0
-0.155000 0.035000 -0.000248 -1.000000 0.000000 0.000000 26 29 0
-0.155000 0.051000 -0.000248 -1.000000 -0.000000 0.000000 26 29 0
-0.139000 0.045000 -0.000248 1.000000 0.000000 0.000000 26 29 0
-0.139000 0.051000 -0.000248 1.000000 0.000000 0.000000 26 29 0
-0.139000 0.045000 0.068752 1.000000 0.000000 0.000000 26 29 0
-0.139000 0.051000 0.068752 1.000000 0.000000 0.000000 26 29 0
-0.155000 0.051000 0.068752 -0.000000 1.000000 -0.000000 26 29 0
-0.139000 0.051000 0.068752 -0.000000 1.000000 -0.000000 26 29 0
-0.155000 0.051000 -0.000248 -0.000000 1.000000 -0.000000 26 29 0
-0.139000 0.051000 -0.000248 -0.000000 1.000000 -0.000000 26 29 0
-0.150000 0.045000 0.068752 1.000000 0.000000 -0.000000 26 29 0
-0.150000 0.035000 0.068752 1.000000 0.000000 -0.000000 26 29 0
-0.150000 0.045000 -0.000248 1.000000 0.000000 -0.000000 26 29 0
-0.150000 0.035000 -0.000248 1.000000 -0.000000 0.000000 26 29 0
-0.139000 0.045000 0.068752 0.000000 -1.000000 0.000000 26 29 0
-0.150000 0.045000 0.068752 0.000000 -1.000000 0.000000 26 29 0
-0.139000 0.045000 -0.000248 0.000000 -1.000000 0.000000 26 29 0
-0.150000 0.045000 -0.000248 0.000000 -1.000000 0.000000 26 29 0
0.155000 0.035000 -0.000248 0.000000 -1.000000 0.000000 26 29 0
0.155000 0.035000 0.068752 0.000000 -1.000000 0.000000 26 29 0
0.150000 0.035000 -0.000248 0.000000 -1.000000 0.000000 26 29 0
0.150000 0.035000 0.068752 0.000000 -1.000000 0.000000 26 29 0
0.139000 0.045000 -0.000248 -0.000000 -0.000000 -1.000000 26 29 0
0.139000 0.051000 -0.000248 -0.000000 -0.000000 -1.000000 26 29 0
0.150000 0.045000 -0.000248 -0.000000 -0.000000 -1.000000 26 29 0
0.155000 0.051000 -0.000248 -0.000000 -0.000000 -1.000000 26 29 0
0.150000 0.035000 -0.000248 0.000000 -0.000000 -1.000000 26 29 0
0.155000 0.035000 -0.000248 0.000000 -0.000000 -1.000000 26 29 0
0.150000 0.035000 0.068752 0.000000 0.000000 1.000000 26 29 0
0.155000 0.035000 0.068752 0.000000 0.000000 1.000000 26 29 0
0.150000 0.045000 0.068752 0.000000 0.000000 1.000000 26 29 0
0.155000 0.051000 0.068752 0.000000 0.000000 1.000000 26 29 0
0.139000 0.045000 0.068752 -0.000000 0.000000 1.000000 26 29 0
0.139000 0.051000 0.068752 -0.000000 0.000000 1.000000 26 29 0
0.155000 0.035000 -0.000248 1.000000 0.000000 0.000000 26 29 0
0.155000 0.051000 -0.000248 1.000000 0.000000 0.000000 26 29 0
0.155000 0.035000 0.068752 1.000000 0.000000 0.000000 26 29 0
0.155000 0.051000 0.068752 1.000000 0.000000 0.000000 26 29 0
0.139000 0.045000 0.068752 -1.000000 0.000000 0.000000 26 29 0
0.139000 0.051000 0.068752 -1.000000 0.000000 0.000000 26 29 0
0.139000 0.045000 -0.000248 -1.000000 0.000000 0.000000 26 29 0
0.139000 0.051000 -0.000248 -1.000000 -0.000000 0.000000 26 29 0
0.155000 0.051000 -0.000248 0.000000 1.000000 -0.000000 26 29 0
0.139000 0.051000 -0.000248 0.000000 1.000000 -0.000000 26 29 0
0.155000 0.051000 0.068752 0.000000 1.000000 -0.000000 26 29 0
0.139000 0.051000 0.068752 0.000000 1.000000 -0.000000 26 29 0
0.150000 0.045000 -0.000248 -1.000000 0.000000 -0.000000 26 29 0
0.150000 0.035000 -0.000248 -1.000000 0.000000 -0.000000 26 29 0
0.150000 0.045000 0.068752 -1.000000 0.000000 -0.000000 26 29 0
0.150000 0.035000 0.068752 -1.000000 0.000000 -0.000000 26 29 0
0.139000 0.045000 -0.000248 0.000000 -1.000000 0.000000 26 29 0
0.150000 0.045000 -0.000248 0.000000 -1.000000 0.000000 26 29 0
0.139000 0.045000 0.068752 0.000000 -1.000000 0.000000 26 29 0
0.150000 0.045000 0.068752 0.000000 -1.000000 0.000000 26 29 0
0.155000 -0.035000 0.068752 0.000000 1.000000 -0.000000 26 29 0
0.155000 -0.035000 -0.000248 0.000000 1.000000 -0.000000 26 29 0
0.150000 -0.035000 0.068752 0.000000 1.000000 -0.000000 26 29 0
0.150000 -0.035000 -0.000248 0.000000 1.000000 -0.000000 26 29 0
0.139000 -0.045000 0.068752 0.000000 -0.000000 1.000000 26 29 0
0.139000 -0.051000 0.068752 0.000000 -0.000000 1.000000 26 29 0
0.150000 -0.045000 0.068752 0.000000 -0.000000 1.000000 26 29 0
0.155000 -0.051000 0.068752 0.000000 -0.000000 1.000000 26 29 0
0.150000 -0.035000 0.068752 0.000000 0.000000 1.000000 26 29 0
0.155000 -0.035000 0.068752 0.000000 0.000000 1.000000 26 29 0
0.150000 -0.035000 -0.000248 -0.000000 -0.000000 -1.000000 26 29 0
0.155000 -0.035000 -0.000248 -0.000000 -0.000000 -1.000000 26 29 0
0.150000 -0.045000 -0.000248 -0.000000 -0.000000 -1.000000 26 29 0
0.155000 -0.051000 -0.000248 -0.000000 -0.000000 -1.000000 26 29 0
0.139000 -0.045000 -0.000248 0.000000 0.000000 -1.000000 26 29 0
0.139000 -0.051000 -0.000248 0.000000 0.000000 -1.000000 26 29 0
0.155000 -0.035000 0.068752 1.000000 0.000000 -0.000000 26 29 0
0.155000 -0.051000 0.068752 1.000000 0.000000 -0.000000 26 29 0
0.155000 -0.035000 -0.000248 1.000000 0.000000 -0.000000 26 29 0
0.155000 -0.051000 -0.000248 1.000000 -0.000000 0.000000 26 29 0
0.139000 -0.045000 -0.000248 -1.000000 0.000000 -0.000000 26 29 0
0.139000 -0.051000 -0.000248 -1.000000 0.000000 -0.000000 26 29 0
0.139000 -0.045000 0.068752 -1.000000 0.000000 -0.000000 26 29 0
0.139000 -0.051000 0.068752 -1.000000 0.000000 -0.000000 26 29 0
0.155000 -0.051000 0.068752 0.000000 -1.000000 0.000000 26 29 0
0.139000 -0.051000 0.068752 0.000000 -1.000000 0.000000 26 29 0
0.155000 -0.051000 -0.000248 0.000000 -1.000000 0.000000 26 29 0
0.139000 -0.051000 -0.000248 0.000000 -1.000000 0.000000 26 29 0
0.150000 -0.045000 0.068752 -1.000000 0.000000 0.000000 26 29 0
0.150000 -0.035000 0.068752 -1.000000 0.000000 0.000000 26 29 0
0.150000 -0.045000 -0.000248 -1.000000 0.000000 0.000000 26 29 0
0.150000 -0.035000 -0.000248 -1.000000 -0.000000 0.000000 26 29 0
0.139000 -0.045000 0.068752 0.000000 1.000000 -0.000000 26 29 0
0.150000 -0.045000 0.068752 0.000000 1.000000 -0.000000 26 29 0
0.139000 -0.045000 -0.000248 0.000000 1.000000 -0.000000 26 29 0
0.150000 -0.045000 -0.000248 0.000000 1.000000 -0.000000 26 29 0
0.141000 -0.036000 0.012752 1.000000 -0.000000 0.000000 200 29 40
0.141000 -0.036000 0.059752 1.000000 -0.000000 0.000000 200 29 40
0.141000 -0.045000 0.012752 1.000000 -0.000000 0.000000 200 29 40
0.141000 -0.045000 0.059752 1.000000 -0.000000 0.000000 200 29 40
-0.141000 -0.036000 0.012752 0.000000 -0.000000 -1.000000 200 29 40
0.141000 -0.036000 0.012752 0.000000 -0.000000 -1.000000 200 29 40
-0.141000 -0.045000 0.012752 0.000000 -0.000000 -1.000000 200 29 40
0.141000 -0.045000 0.012752 0.000000 -0.000000 -1.000000 200 29 40
-0.141000 -0.036000 0.059752 -1.000000 0.000000 0.000000 200 29 40
-0.141000 -0.036000 0.012752 -1.000000 0.000000 0.000000 200 29 40
-0.141000 -0.045000 0.059752 -1.000000 0.000000 0.000000 200 29 40
-0.141000 -0.045000 0.012752 -1.000000 0.000000 0.000000 200 29 40
0.141000 -0.036000 0.059752 0.000000 -0.000000 1.000000 200 29 40
-0.141000 -0.036000 0.059752 0.000000 -0.000000 1.000000 200 29 40
0.141000 -0.045000 0.059752 0.000000 -0.000000 1.000000 200 29 40
-0.141000 -0.045000 0.059752 -0.000000 0.000000 1.000000 200 29 40
-0.141000 -0.036000 0.012752 -0.000000 1.000000 -0.000000 200 29 40
-0.141000 -0.036000 0.059752 -0.000000 1.000000 -0.000000 200 29 40
0.141000 -0.036000 0.012752 -0.000000 1.000000 -0.000000 200 29 40
0.141000 -0.036000 0.059752 -0.000000 1.000000 -0.000000 200 29 40
-0.141000 -0.045000 0.059752 0.000000 -1.000000 0.000000 200 29 40
-0.141000 -0.045000 0.012752 0.000000 -1.000000 0.000000 200 29 40
0.141000 -0.045000 0.059752 0.000000 -1.000000 0.000000 200 29 40
0.141000 -0.045000 0.012752 0.000000 -1.000000 0.000000 200 29 40
0.141000 0.045000 0.012752 1.000000 -0.000000 0.000000 200 29 40
0.141000 0.045000 0.059752 1.000000 -0.000000 0.000000 200 29 40
0.141000 0.036000 0.012752 1.000000 -0.000000 0.000000 200 29 40
0.141000 0.036000 0.059752 1.000000 -0.000000 0.000000 200 29 40
-0.141000 0.045000 0.012752 0.000000 -0.000000 -1.000000 200 29 40
0.141000 0.045000 0.012752 0.000000 -0.000000 -1.000000 200 29 40
-0.141000 0.036000 0.012752 0.000000 -0.000000 -1.000000 200 29 40
0.141000 0.036000 0.012752 0.000000 -0.000000 -1.000000 200 29 40
-0.141000 0.045000 0.059752 -1.000000 0.000000 0.000000 200 29 40
-0.141000 0.045000 0.012752 -1.000000 0.000000 0.000000 200 29 40
-0.141000 0.036000 0.059752 -1.000000 0.000000 0.000000 200 29 40
-0.141000 0.036000 0.012752 -1.000000 0.000000 0.000000 200 29 40
0.141000 0.045000 0.059752 0.000000 -0.000000 1.000000 200 29 40
-0.141000 0.045000 0.059752 0.000000 -0.000000 1.000000 200 29 40
0.141000 0.036000 0.059752 0.000000 -0.000000 1.000000 200 29 40
-0.141000 0.036000 0.059752 -0.000000 0.000000 1.000000 200 29 40
-0.141000 0.045000 0.012752 -0.000000 1.000000 -0.000000 200 29 40
-0.141000 0.045000 0.059752 -0.000000 1.000000 -0.000000 200 29 40
0.141000 0.045000 0.012752 -0.000000 1.000000 -0.000000 200 29 40
0.141000 0.045000 0.059752 -0.000000 1.000000 -0.000000 200 29 40
-0.141000 0.036000 0.059752 0.000000 -1.000000 0.000000 200 29 40
-0.141000 0.036000 0.012752 0.000000 -1.000000 0.000000 200 29 40
0.141000 0.036000 0.059752 0.000000 -1.000000 0.000000 200 29 40
0.141000 0.036000 0.012752 0.000000 -1.000000 0.000000 200 29 40
-0.150000 0.045000 0.012752 0.000000 1.000000 -0.000000 200 29 40
-0.150000 0.045000 0.059752 0.000000 1.000000 -0.000000 200 29 40
-0.141000 0.045000 0.012752 0.000000 1.000000 -0.000000 200 29 40
-0.141000 0.045000 0.059752 0.000000 1.000000 -0.000000 200 29 40
-0.150000 -0.045000 0.012752 0.000000 -0.000000 -1.000000 200 29 40
-0.150000 0.045000 0.012752 0.000000 -0.000000 -1.000000 200 29 40
-0.141000 -0.045000 0.012752 0.000000 -0.000000 -1.000000 200 29 40
-0.141000 0.045000 0.012752 -0.000000 -0.000000 -1.000000 200 29 40
-0.150000 -0.045000 0.059752 0.000000 -1.000000 0.000000 200 29 40
-0.150000 -0.045000 0.012752 0.000000 -1.000000 0.000000 200 29 40
-0.141000 -0.045000 0.059752 0.000000 -1.000000 0.000000 200 29 40
-0.141000 -0.045000 0.012752 0.000000 -1.000000 0.000000 200 29 40
-0.150000 0.045000 0.059752 0.000000 0.000000 1.000000 200 29 40
-0.150000 -0.045000 0.059752 0.000000 0.000000 1.000000 200 29 40
-0.141000 0.045000 0.059752 0.000000 0.000000 1.000000 200 29 40
-0.141000 -0.045000 0.059752 0.000000 0.000000 1.000000 200 29 40
-0.150000 -0.045000 0.012752 -1.000000 -0.000000 0.000000 200 29 40
-0.150000 -0.045000 0.059752 -1.000000 -0.000000 0.000000 200 29 40
-0.150000 0.045000 0.012752 -1.000000 -0.000000 0.000000 200 29 40
-0.150000 0.045000 0.059752 -1.000000 -0.000000 -0.000000 200 29 40
-0.141000 -0.045000 0.059752 1.000000 0.000000 -0.000000 200 29 40
-0.141000 -0.045000 0.012752 1.000000 0.000000 -0.000000 200 29 40
-0.141000 0.045000 0.059752 1.000000 0.000000 -0.000000 200 29 40
-0.141000 0.045000 0.012752 1.000000 0.000000 -0.000000 200 29 40
0.141000 0.045000 0.012752 0.000000 1.000000 -0.000000 200 29 40
0.141000 0.045000 0.059752 0.000000 1.000000 -0.000000 200 29 40
0.150000 0.045000 0.012752 0.000000 1.000000 -0.000000 200 29 40
0.150000 0.045000 0.059752 0.000000 1.000000 -0.000000 200 29 40
0.141000 -0.045000 0.012752 0.000000 -0.000000 -1.000000 200 29 40
0.141000 0.045000 0.012752 0.000000 -0.000000 -1.000000 200 29 40
0.150000 -0.045000 0.012752 0.000000 -0.000000 -1.000000 200 29 40
0.150000 0.045000 0.012752 -0.000000 -0.000000 -1.000000 200 29 40
0.141000 -0.045000 0.059752 0.000000 -1.000000 0.000000 200 29 40
0.141000 -0.045000 0.012752 0.000000 -1.000000 0.000000 200 29 40
0.150000 -0.045000 0.059752 0.000000 -1.000000 0.000000 200 29 40
0.150000 -0.045000 0.012752 0.000000 -1.000000 0.000000 200 29 40
0.141000 0.045000 0.059752 0.000000 0.000000 1.000000 200 29 40
0.141000 -0.045000 0.059752 0.000000 0.000000 1.000000 200 29 40
0.150000 0.045000 0.059752 0.000000 0.000000 1.000000 200 29 40
0.150000 -0.045000 0.059752 0.000000 0.000000 1.000000 200 29 40
0.141000 -0.045000 0.012752 -1.000000 -0.000000 0.000000 200 29 40
0.141000 -0.045000 0.059752 -1.000000 -0.000000 0.000000 200 29 40
0.141000 0.045000 0.012752 -1.000000 -0.000000 0.000000 200 29 40
0.141000 0.045000 0.059752 -1.000000 -0.000000 -0.000000 200 29 40
0.150000 -0.045000 0.059752 1.000000 0.000000 -0.000000 200 29 40
0.150000 -0.045000 0.012752 1.000000 0.000000 -0.000000 200 29 40
0.150000 0.045000 0.059752 1.000000 0.000000 -0.000000 200 29 40
0.150000 0.045000 0.012752 1.000000 0.000000 -0.000000 200 29 40
3 0 1 2
3 2 1 3
3 4 5 6
3 6 5 7
3 8 9 10
3 10 9 11
3 12 13 14
3 14 13 15
3 16 17 18
3 18 17 19
3 20 21 22
3 22 21 23
3 22 23 24
3 24 23 25
3 24 25 26
3 26 25 27
3 26 27 20
3 20 27 21
3 28 29 30
3 30 29 31
3 32 33 34
3 34 33 35
3 36 37 38
3 38 37 39
3 40 41 42
3 42 41 43
3 44 45 46
3 46 45 47
3 48 49 50
3 50 49 51
3 52 53 54
3 54 53 55
3 54 55 56
3 56 55 57
3 58 59 60
3 60 59 61
3 60 61 62
3 62 61 63
3 64 65 66
3 66 65 67
3 68 69 70
3 70 69 71
3 72 73 74
3 74 73 75
3 76 77 78
3 78 77 79
3 80 81 82
3 82 81 83
3 84 85 86
3 86 85 87
3 88 89 90
3 90 89 91
3 90 91 92
3 92 91 93
3 94 95 96
3 96 95 97
3 96 97 98
3 98 97 99
3 100 101 102
3 102 101 103
3 104 105 106
3 106 105 107
3 108 109 110
3 110 109 111
3 112 113 114
3 114 113 115
3 116 117 118
3 118 117 119
3 120 121 122
3 122 121 123
3 124 125 126
3 126 125 127
3 126 127 128
3 128 127 129
3 130 131 132
3 132 131 133
3 132 133 134
3 134 133 135
3 136 137 138
3 138 137 139
3 140 141 142
3 142 141 143
3 144 145 146
3 146 145 147
3 148 149 150
3 150 149 151
3 152 153 154
3 154 153 155
3 156 157 158
3 158 157 159
3 160 161 162
3 162 161 163
3 162 163 164
3 164 163 165
3 166 167 168
3 168 167 169
3 168 169 170
3 170 169 171
3 172 173 174
3 174 173 175
3 176 177 178
3 178 177 179
3 180 181 182
3 182 181 183
3 184 185 186
3 186 185 187
3 188 189 190
3 190 189 191
3 192 193 194
3 194 193 195
3 196 197 198
3 198 197 199
3 200 201 202
3 202 201 203
3 204 205 206
3 206 205 207
3 208 209 210
3 210 209 211
3 212 213 214
3 214 213 215
3 216 217 218
3 218 217 219
3 220 221 222
3 222 221 223
3 224 225 226
3 226 225 227
3 228 229 230
3 230 229 231
3 232 233 234
3 234 233 235
3 236 237 238
3 238 237 239
3 240 241 242
3 242 241 243
3 244 245 246
3 246 245 247
3 248 249 250
3 250 249 251
3 252 253 254
3 254 253 255
3 256 257 258
3 258 257 259
3 260 261 262
3 262 261 263
3 264 265 266
3 266 265 267
3 268 269 270
3 270 269 271
3 272 273 274
3 274 273 275
3 276 277 278
3 278 277 279
3 280 281 282
3 282 281 283
3 284 285 286
3 286 285 287
